{
  "project_info": {
    "project_number": "999873740649",
    "firebase_url": "https://carro-de-boi.firebaseio.com",
    "project_id": "carro-de-boi",
    "storage_bucket": "carro-de-boi.appspot.com"
  },
  "client": [
    {
      "client_info": {
        "mobilesdk_app_id": "1:999873740649:android:7eed19aa3ff6a458b447f8",
        "android_client_info": {
          "package_name": "br.com.carrodeboiudi"
        }
      },
      "oauth_client": [
        {
          "client_id": "999873740649-2gf8shtnnctaetbjlob6nr2mpg1606ut.apps.googleusercontent.com",
          "client_type": 1,
          "android_info": {
            "package_name": "br.com.carrodeboiudi",
            "certificate_hash": "007a46d9b17d3adc7e3a42a43e4ff318cb2a0b0a"
          }
        },
        {
          "client_id": "999873740649-oei3c3e38m2k3ock36j2flp050dt6nvq.apps.googleusercontent.com",
          "client_type": 3
        }
      ],
      "api_key": [
        {
          "current_key": "AIzaSyCw8aC3BWDn4mTahEyIu0R7y4QpT2K6ltI"
        }
      ],
      "services": {
        "appinvite_service": {
          "other_platform_oauth_client": [
            {
              "client_id": "999873740649-oei3c3e38m2k3ock36j2flp050dt6nvq.apps.googleusercontent.com",
              "client_type": 3
            }
          ]
        }
      }
    }
  ],
  "configuration_version": "1"
}